{
   "id": "ajeoq5po9n0ua7q9sdl4",
   "service_account_id": "ajebmiokbp8grh4p0jfe",
   "created_at": "2024-03-26T19:49:00.850885428Z",
   "key_algorithm": "RSA_2048",
   "public_key": "",
   "private_key": ""
}